{
  "extends": ["tslint:recommended", "tslint-react", "tslint-config-prettier"],
  "linterOptions": {
    "exclude": ["node_modules/**/*.ts", "coverage/lcov-report/*.js"]
  },
  "rules": {
    "jsx-no-lambda": [false],
    "ordered-imports": {
      "severity": "error",
      "options": {
        "grouped-imports": true
      }
    }
  }
}
